Data import from cellxgene • Rcollectlworkflowh5ad
…
## [1] "bioconductor-rpci-yubo/Rcollectlworkflowh5ad"

id = sprintf("%04d", dim(avtable("file"))[1] + 1)
update_file_avtable(manifest_tibble, id, sample, "true", 3, 60)

## # A tibble: 1 × 5
##    page from_row to_row job_id                               status  
##   <int>    <int>  <int> <chr>                                <chr>   
## 1     1        1      1 31b77c3f-1911-4c8a-92cb-89ca10fa8dd6 Uploaded

avtable("file")

## # A tibble: 70 × 16
##    file_id dataset_name    fileid workflow_cellxgene_h…¹ knitr_eval mem_gb  core
##    <chr>   <chr>           <chr>  <chr>                  <lgl>       <int> <int>
##  1 0001    Direct Exposur… e2874… gs://fc-9bc34f41-efc4… TRUE           30     2
##  2 0002    Direct Exposur… e2874… gs://fc-9bc34f41-efc4… TRUE           30     2
##  3 0003    Direct Exposur… e2874… gs://fc-9bc34f41-efc4… TRUE           30     3
##  4 0004    Direct Exposur… e2874… gs://fc-9bc34f41-efc4… TRUE           30     3
##  5 0005    Direct Exposur… e2874… gs://fc-9bc34f41-efc4… TRUE           30     4
##  6 0006    Direct Exposur… e2874… gs://fc-9bc34f41-efc4… TRUE           30     4
##  7 0007    Direct Exposur… e2874… gs://fc-9bc34f41-efc4… TRUE           30     5
##  8 0008    Direct Exposur… e2874… gs://fc-9bc34f41-efc4… TRUE           30     5
##  9 0009    Direct Exposur… e2874… gs://fc-9bc34f41-efc4… TRUE           60     3
## 10 0010    Direct Exposur… e2874… gs://fc-9bc34f41-efc4… TRUE           60     3
## # ℹ 60 more rows
## # ℹ abbreviated name: ¹​workflow_cellxgene_h5ad_html
## # ℹ 9 more variables: dgCMatrix <lgl>, sample <chr>, cell_count <int>,
## #   modelGeneVarByPoisson_html <chr>, DelayedArray_parameters_html <chr>,
## #   Rcollectl_timestamp.itemsType <chr>, Rcollectl_timestamp.items <list>,
## #   Rcollectl_result.itemsType <chr>, Rcollectl_result.items <list>
…
Pull workflow output

Workflow outputs could be pulled and viewed with R.

avworkspace("bioconductor-rpci-yubo/Rcollectlworkflowh5ad")

## [1] "bioconductor-rpci-yubo/Rcollectlworkflowh5ad"

avworkflow_jobs()

## # A tibble: 66 × 9
##    submissionId            submitter submissionDate      status succeeded failed
##    <chr>                   <chr>     <dttm>              <chr>      <int>  <int>
##  1 316c604d-4ce6-49fc-8b1… chengyub… 2023-07-21 19:56:58 Done           1      0
##  2 874043e7-a3f5-4a0b-b12… chengyub… 2023-07-21 19:56:35 Done           1      0
##  3 4c66be7f-2d8a-4e80-917… chengyub… 2023-07-21 19:56:06 Done           1      0
##  4 53b146eb-eccc-470f-bd3… chengyub… 2023-07-21 19:46:48 Done           1      0
##  5 fed4ae3a-f2bb-4dcd-bfc… chengyub… 2023-07-13 14:47:00 Done           1      0
##  6 390d5094-4cdf-43f7-983… chengyub… 2023-07-13 14:46:12 Done           1      0
##  7 70955e9a-b79c-454a-81f… chengyub… 2023-07-12 13:26:31 Done           1      0
##  8 1dc08765-4821-42d5-b71… chengyub… 2023-07-11 00:23:29 Done           1      0
##  9 32c0fea4-9407-4bfe-b03… chengyub… 2023-07-06 19:05:22 Done           1      0
## 10 c6393c3c-25b7-44d4-a25… chengyub… 2023-07-06 17:29:15 Done           0      1
## # ℹ 56 more rows
## # ℹ 3 more variables: submissionRoot <chr>, namespace <chr>, name <chr>
…
